Jinja2==2.6
amqplib==1.0.2
anyjson==0.3.3
billiard==2.7.3.12
celery==3.0.5
html2text==3.200.3
kombu==2.3.2
mongoengine==0.6.10
oauth2==1.5.211
pyasn1==0.1.3
pyjade==1.5
pymongo==2.2
python-dateutil==1.5
tornado==2.3
wsgiref==0.1.2
